{
  "code":"0",
  "data":{
    "endRow":2,
    "hasNextPage":true,
    "hasPreviousPage":false,
    "isFirstPage":true,
    "isLastPage":false,
    "list":[
      {
        "accountBalance":370962.11,
        "accountName":"悦荟（重庆）生物科技有限公司",
        "accountNature":"0001",
        "accountNo":"123916835210000",
        "accountStatus":"0",
        "associatedCustomerNumber":null,
        "bankSerialNumber":"C0446TM000EK20Z",
        "bankTransactionDate":1710683825000,
        "bankType":"CMB",
        "bookingDate":null,
        "checkCode":"DZM202403170000156710",
        "corporateIdentityCode":"",
        "currency":"10",
        "detailSource":"B",
        "detailType":"2",
        "digest":"",
        "erpSerialNumber":null,
        "extensionMsg":null,
        "incurredAmount":10170.00,
        "loanType":"2",
        "merchantName":null,
        "merchantNumber":null,
        "openBank":"招商银行股份有限公司重庆分行",
        "oppositeAccount":"265033867350",
        "oppositeName":"海南芃名智能新零售有限公司",
        "oppositeOpeningBank":"中国银行海口椰海大道支行",
        "payApplyRemark1":null,
        "payApplyRemark2":null,
        "payApplyRemark3":null,
        "paymentNature":null,
        "paymentNatureFlag":"1",
        "personalizeField1":null,
        "personalizeField2":null,
        "personalizeField3":null,
        "personalizeField4":null,
        "personalizeField5":null,
        "postscript":null,
        "protocolType":null,
        "protocolTypeName":null,
        "purpose":"采购货品",
        "remark":null,
        "reserveField1":null,
        "reserveField2":null,
        "reserveField3":null,
        "reserveField4":null,
        "transactionCode":"NPT2",
        "transactionSerialNumber":2024031700484916,
        "unitCode":"ZT027",
        "unitName":"悦荟（重庆）生物科技有限公司",
        "updateTime":1710716705000,
        "valueDate":1710604800000,
        "virtualAccount":null,
        "virtualAccountName":null,
        "voucherCode":null
      },
      {
        "accountBalance":606755.99,
        "accountName":"姿生科技（广州）有限公司",
        "accountNature":"0001",
        "accountNo":"120911090410802",
        "accountStatus":"0",
        "associatedCustomerNumber":null,
        "bankSerialNumber":"C0146TM000EP2GZ",
        "bankTransactionDate":1710662575000,
        "bankType":"CMB",
        "bookingDate":null,
        "checkCode":"DZM202403170000114323",
        "corporateIdentityCode":"",
        "currency":"10",
        "detailSource":"B",
        "detailType":"2",
        "digest":"",
        "erpSerialNumber":null,
        "extensionMsg":null,
        "incurredAmount":1340.64,
        "loanType":"2",
        "merchantName":null,
        "merchantNumber":null,
        "openBank":"招商银行股份有限公司广州科技园支行",
        "oppositeAccount":"13050161500800001823",
        "oppositeName":"石家庄玉琢信誉楼百货有限公司",
        "oppositeOpeningBank":"中国建设银行股份有限公司石家庄桥西支行",
        "payApplyRemark1":null,
        "payApplyRemark2":null,
        "payApplyRemark3":null,
        "paymentNature":null,
        "paymentNatureFlag":"1",
        "personalizeField1":null,
        "personalizeField2":null,
        "personalizeField3":null,
        "personalizeField4":null,
        "personalizeField5":null,
        "postscript":null,
        "protocolType":null,
        "protocolTypeName":null,
        "purpose":"**",
        "remark":null,
        "reserveField1":null,
        "reserveField2":null,
        "reserveField3":null,
        "reserveField4":null,
        "transactionCode":"CPUA",
        "transactionSerialNumber":2024031700367831,
        "unitCode":"ZT003",
        "unitName":"姿生科技（广州）有限公司",
        "updateTime":1710716704000,
        "valueDate":1710604800000,
        "virtualAccount":null,
        "virtualAccountName":null,
        "voucherCode":null
      }
    ],
    "navigateFirstPage":1,
    "navigateLastPage":2,
    "navigatePages":8,
    "navigatepageNums":[1,2],
    "nextPage":2,
    "pageNum":1,
    "pageSize":2,
    "pages":2,
    "prePage":0,
    "size":2,
    "startRow":1,
    "total":4
  },
  "msg":"ok"
}